\BOOKMARK [0][-]{chapter*.4}{Bibliography}{}% 1
\BOOKMARK [0][-]{chapter.1}{Introduction}{}% 2
\BOOKMARK [0][-]{chapter.2}{Survey of the Literature}{}% 3
\BOOKMARK [1][-]{section.2.1}{Object Tracking}{chapter.2}% 4
\BOOKMARK [1][-]{section.2.2}{Shape Reconstruction}{chapter.2}% 5
\BOOKMARK [1][-]{section.2.3}{Obstacle Identification}{chapter.2}% 6
\BOOKMARK [2][-]{subsection.2.3.1}{Spatial Clustering}{section.2.3}% 7
\BOOKMARK [2][-]{subsection.2.3.2}{Rangefinders}{section.2.3}% 8
\BOOKMARK [2][-]{subsection.2.3.3}{Cameras}{section.2.3}% 9
\BOOKMARK [2][-]{subsection.2.3.4}{Stereo Vision}{section.2.3}% 10
\BOOKMARK [2][-]{subsection.2.3.5}{Time-of-Flight Cameras}{section.2.3}% 11
\BOOKMARK [2][-]{subsection.2.3.6}{Multiple Cameras}{section.2.3}% 12
\BOOKMARK [2][-]{subsection.2.3.7}{U-V Disparity Mapping}{section.2.3}% 13
\BOOKMARK [1][-]{section.2.4}{The U-V-Disparity Map}{chapter.2}% 14
\BOOKMARK [2][-]{subsection.2.4.1}{U and V Disparity Map Sampling}{section.2.4}% 15
\BOOKMARK [2][-]{subsection.2.4.2}{Image Processing in The U and V Disparity Maps}{section.2.4}% 16
\BOOKMARK [0][-]{chapter.3}{Time-of-Flight Distance Imaging}{}% 17
\BOOKMARK [1][-]{section.3.1}{Physics of Time-of-Flight Cameras}{chapter.3}% 18
\BOOKMARK [2][-]{subsection.3.1.1}{Pulsed Modulationli}{section.3.1}% 19
\BOOKMARK [2][-]{subsection.3.1.2}{The Photonic Mixer Device and the ACF}{section.3.1}% 20
\BOOKMARK [1][-]{section.3.2}{Cartesian Spatial Coordinates}{chapter.3}% 21
\BOOKMARK [0][-]{chapter.4}{Results}{}% 22
\BOOKMARK [1][-]{section.4.1}{Identifying Planes}{chapter.4}% 23
\BOOKMARK [2][-]{subsection.4.1.1}{U and V Disparity Map Image Processing}{section.4.1}% 24
\BOOKMARK [2][-]{subsection.4.1.2}{Plane Identification}{section.4.1}% 25
\BOOKMARK [2][-]{subsection.4.1.3}{The zy and xz Histogram}{section.4.1}% 26
\BOOKMARK [2][-]{subsection.4.1.4}{Detection of Objects in the Occlusion Zone}{section.4.1}% 27
\BOOKMARK [2][-]{subsection.4.1.5}{Sources of Error}{section.4.1}% 28
\BOOKMARK [2][-]{subsection.4.1.6}{Comparison of the UV-Disparity Map and the XYZ-Histogram Method}{section.4.1}% 29
\BOOKMARK [0][-]{chapter.5}{Discussion}{}% 30
\BOOKMARK [1][-]{section.5.1}{Applications of Blind-spot Detection}{chapter.5}% 31
\BOOKMARK [2][-]{subsection.5.1.1}{Industrial Applications}{section.5.1}% 32
\BOOKMARK [2][-]{subsection.5.1.2}{Autonomous Navigation}{section.5.1}% 33
\BOOKMARK [2][-]{subsection.5.1.3}{Pedestrian Safety}{section.5.1}% 34
\BOOKMARK [1][-]{section.5.2}{Future Work}{chapter.5}% 35
\BOOKMARK [2][-]{subsection.5.2.1}{The Curiosity Vector}{section.5.2}% 36
\BOOKMARK [2][-]{subsection.5.2.2}{Occlusion Density and Vector Selection}{section.5.2}% 37
\BOOKMARK [2][-]{subsection.5.2.3}{Networked Applications}{section.5.2}% 38
\BOOKMARK [2][-]{subsection.5.2.4}{Mobile Detectors}{section.5.2}% 39
\BOOKMARK [0][-]{chapter.6}{Resources}{}% 40
\BOOKMARK [1][-]{section.6.1}{The dbbd Python Package}{chapter.6}% 41
\BOOKMARK [0][-]{section.6.1}{Bibliography}{}% 42
