# Fdb version 3
["bibtex prine_survey"] 1531065932 "prine_survey.aux" "prine_survey.bbl" "prine_survey" 1531065933
  "/usr/share/texlive/texmf-dist/bibtex/bst/base/unsrt.bst" 1292289607 18030 1376b4b231b50c66211e47e42eda2875 ""
  "bib.bib" 1530490947 10897 bc36f904904aad7d7e68ad6a36930a2f ""
  "prine_survey.aux" 1531065933 11242 5e0305772b8fda8abe1225b390b2a8eb ""
  "prine_survey.bcf" 0 -1 0 ""
  (generated)
  "prine_survey.blg"
  "prine_survey.bbl"
["pdflatex"] 1531065933 "prine_survey.tex" "/home/joe/Documents/thesis/survey/prine_survey.pdf" "prine_survey" 1531065933
  "/etc/texmf/web2c/texmf.cnf" 1520385429 475 c0e671620eb5563b2130f56340a5fde8 ""
  "/home/joe/Documents/thesis/survey/prine_survey.aux" 1531065933 11242 5e0305772b8fda8abe1225b390b2a8eb ""
  "/usr/share/texlive/texmf-dist/fonts/map/fontname/texfonts.map" 1272929888 3287 e6b82fe08f5336d4d5ebc73fb1152e87 ""
  "/usr/share/texlive/texmf-dist/fonts/tfm/public/cm/cmbx10.tfm" 1136768653 1328 c834bbb027764024c09d3d2bf908b5f0 ""
  "/usr/share/texlive/texmf-dist/fonts/tfm/public/cm/cmbx12.tfm" 1136768653 1324 c910af8c371558dc20f2d7822f66fe64 ""
  "/usr/share/texlive/texmf-dist/fonts/tfm/public/cm/cmmi12.tfm" 1136768653 1524 4414a8315f39513458b80dfc63bff03a ""
  "/usr/share/texlive/texmf-dist/fonts/tfm/public/cm/cmmi6.tfm" 1136768653 1512 f21f83efb36853c0b70002322c1ab3ad ""
  "/usr/share/texlive/texmf-dist/fonts/tfm/public/cm/cmmi8.tfm" 1136768653 1520 eccf95517727cb11801f4f1aee3a21b4 ""
  "/usr/share/texlive/texmf-dist/fonts/tfm/public/cm/cmr12.tfm" 1136768653 1288 655e228510b4c2a1abe905c368440826 ""
  "/usr/share/texlive/texmf-dist/fonts/tfm/public/cm/cmr17.tfm" 1136768653 1292 296a67155bdbfc32aa9c636f21e91433 ""
  "/usr/share/texlive/texmf-dist/fonts/tfm/public/cm/cmr6.tfm" 1136768653 1300 b62933e007d01cfd073f79b963c01526 ""
  "/usr/share/texlive/texmf-dist/fonts/tfm/public/cm/cmr8.tfm" 1136768653 1292 21c1c5bfeaebccffdb478fd231a0997d ""
  "/usr/share/texlive/texmf-dist/fonts/tfm/public/cm/cmsy10.tfm" 1136768653 1124 6c73e740cf17375f03eec0ee63599741 ""
  "/usr/share/texlive/texmf-dist/fonts/tfm/public/cm/cmsy6.tfm" 1136768653 1116 933a60c408fc0a863a92debe84b2d294 ""
  "/usr/share/texlive/texmf-dist/fonts/tfm/public/cm/cmsy8.tfm" 1136768653 1120 8b7d695260f3cff42e636090a8002094 ""
  "/usr/share/texlive/texmf-dist/fonts/tfm/public/cm/cmti10.tfm" 1136768653 1480 aa8e34af0eb6a2941b776984cf1dfdc4 ""
  "/usr/share/texlive/texmf-dist/fonts/type1/public/amsfonts/cm/cmbx10.pfb" 1248133631 34811 78b52f49e893bcba91bd7581cdc144c0 ""
  "/usr/share/texlive/texmf-dist/fonts/type1/public/amsfonts/cm/cmbx12.pfb" 1248133631 32080 340ef9bf63678554ee606688e7b5339d ""
  "/usr/share/texlive/texmf-dist/fonts/type1/public/amsfonts/cm/cmr10.pfb" 1248133631 35752 024fb6c41858982481f6968b5fc26508 ""
  "/usr/share/texlive/texmf-dist/fonts/type1/public/amsfonts/cm/cmr12.pfb" 1248133631 32722 d7379af29a190c3f453aba36302ff5a9 ""
  "/usr/share/texlive/texmf-dist/fonts/type1/public/amsfonts/cm/cmr17.pfb" 1248133631 32362 179c33bbf43f19adbb3825bb4e36e57a ""
  "/usr/share/texlive/texmf-dist/fonts/type1/public/amsfonts/cm/cmsy10.pfb" 1248133631 32569 5e5ddc8df908dea60932f3c484a54c0d ""
  "/usr/share/texlive/texmf-dist/fonts/type1/public/amsfonts/cm/cmti10.pfb" 1248133631 37944 359e864bd06cde3b1cf57bb20757fb06 ""
  "/usr/share/texlive/texmf-dist/tex/context/base/supp-pdf.mkii" 1337017135 71627 94eb9990bed73c364d7f53f960cc8c5b ""
  "/usr/share/texlive/texmf-dist/tex/generic/oberdiek/etexcmds.sty" 1335995445 7612 c47308d923ec19888707b0f1792b326a ""
  "/usr/share/texlive/texmf-dist/tex/generic/oberdiek/ifluatex.sty" 1303254447 7324 11d14f318d865f420e692d4e6c9c18c3 ""
  "/usr/share/texlive/texmf-dist/tex/generic/oberdiek/ifpdf.sty" 1303254447 7140 ece2cc23d9f20e1f53975ac167f42d3e ""
  "/usr/share/texlive/texmf-dist/tex/generic/oberdiek/infwarerr.sty" 1335995445 8253 3bdedc8409aa5d290a2339be6f09af03 ""
  "/usr/share/texlive/texmf-dist/tex/generic/oberdiek/kvdefinekeys.sty" 1335995445 5152 387d9200f396b498d5fd679ae44ed898 ""
  "/usr/share/texlive/texmf-dist/tex/generic/oberdiek/kvsetkeys.sty" 1335995445 14040 8de9f47fabc4ca3bd69b6d795e32751c ""
  "/usr/share/texlive/texmf-dist/tex/generic/oberdiek/ltxcmds.sty" 1335995445 18425 775b341047ce304520cc7c11ca41392e ""
  "/usr/share/texlive/texmf-dist/tex/generic/oberdiek/pdftexcmds.sty" 1335995445 19987 01cb2f3c1d21e5f05711b7fd50b17f2a ""
  "/usr/share/texlive/texmf-dist/tex/latex/base/omscmr.fd" 1454284088 2256 80ce1168fb4ce6a85583a9cf8972c013 ""
  "/usr/share/texlive/texmf-dist/tex/latex/base/report.cls" 1454284088 23767 af7a57d94b487b22fe88f921af1af1a4 ""
  "/usr/share/texlive/texmf-dist/tex/latex/base/size10.clo" 1454284088 9179 4cd3c5f593e63512893b8ac0123f1bd7 ""
  "/usr/share/texlive/texmf-dist/tex/latex/graphics/graphics.sty" 1454284088 14337 b66dff1d80f6c21e70858a2b3c2d327d ""
  "/usr/share/texlive/texmf-dist/tex/latex/graphics/graphicx.sty" 1428932888 8125 557ab9f1bfa80d369fb45a914aa8a3b4 ""
  "/usr/share/texlive/texmf-dist/tex/latex/graphics/keyval.sty" 1428932888 2594 d18d5e19aa8239cf867fa670c556d2e9 ""
  "/usr/share/texlive/texmf-dist/tex/latex/graphics/trig.sty" 1454284088 3980 0a268fbfda01e381fa95821ab13b6aee ""
  "/usr/share/texlive/texmf-dist/tex/latex/latexconfig/epstopdf-sys.cfg" 1279039959 678 4792914a8f45be57bb98413425e4c7af ""
  "/usr/share/texlive/texmf-dist/tex/latex/latexconfig/graphics.cfg" 1278958963 3563 d35e897cae3b8c6848f6677b73370b54 ""
  "/usr/share/texlive/texmf-dist/tex/latex/oberdiek/epstopdf-base.sty" 1303254447 12029 04d7fdf76e0464c23b5aa3a727952d7c ""
  "/usr/share/texlive/texmf-dist/tex/latex/oberdiek/grfext.sty" 1335995445 7075 bd0c34fbf1ae8fd1debd2a554e41b2d5 ""
  "/usr/share/texlive/texmf-dist/tex/latex/oberdiek/kvoptions.sty" 1335995445 22417 c74ff4af6a1aa2b65d1924020edbbe11 ""
  "/usr/share/texlive/texmf-dist/tex/latex/pdftex-def/pdftex.def" 1306616590 55368 3c8a0d99822330f2dfabc0dfb09ce897 ""
  "/usr/share/texlive/texmf-dist/web2c/texmf.cnf" 1503343927 31343 93828589fb0cea665e553ee5a17ad2d4 ""
  "/usr/share/texmf/web2c/texmf.cnf" 1503343927 31343 93828589fb0cea665e553ee5a17ad2d4 ""
  "/var/lib/texmf/fonts/map/pdftex/updmap/pdftex.map" 1520385460 127805 5c3c5fac7370b5e0b4000550316abe76 ""
  "/var/lib/texmf/web2c/pdftex/pdflatex.fmt" 1520385465 718486 6c7e0912dda15d08731a81140c69353a ""
  "prine_survey.aux" 1531065933 11242 5e0305772b8fda8abe1225b390b2a8eb ""
  "prine_survey.bbl" 1531065933 2044 b60bc91a49d2aeb7568d7a255f81683a "bibtex prine_survey"
  "prine_survey.tex" 1531065929 9647 c19813a474c4963f18124ce7392c4cc1 ""
  (generated)
  "/home/joe/Documents/thesis/survey/prine_survey.log"
  "prine_survey.aux"
  "/home/joe/Documents/thesis/survey/prine_survey.pdf"
  "prine_survey.pdf"
  "prine_survey.log"
