This is BibTeX, Version 0.99d (TeX Live 2017/Debian)
Capacity: max_strings=100000, hash_size=100000, hash_prime=85009
The top-level auxiliary file: prine_thesis.aux
The style file: unsrt.bst
Database file #1: bib.bib
I was expecting a `,' or a `}'---line 65 of file bib.bib
 :     
 :     pages ="891-906",
(Error may have been on previous line)
I'm skipping whatever remains of this entry
Warning--entry type for "arikan" isn't style-file defined
--line 126 of file bib.bib
Warning--empty journal in ringbeck
Warning--empty year in freeman
Too many commas in name 1 of "Miles Hansard, Seungkyu Lee, Ouk Choi, Radu Horaud" for entry hansard
while executing---line 944 of file unsrt.bst
You've used 51 entries,
            1791 wiz_defined-function locations,
            708 strings with 12409 characters,
and the built_in function-call counts, 8575 in all, are:
= -- 691
> -- 204
< -- 0
+ -- 102
- -- 51
* -- 379
:= -- 1360
add.period$ -- 152
call.type$ -- 51
change.case$ -- 51
chr.to.int$ -- 0
cite$ -- 53
duplicate$ -- 517
empty$ -- 1129
format.name$ -- 51
if$ -- 1984
int.to.chr$ -- 0
int.to.str$ -- 51
missing$ -- 49
newline$ -- 257
num.names$ -- 51
pop$ -- 218
preamble$ -- 1
purify$ -- 0
quote$ -- 0
skip$ -- 157
stack$ -- 0
substring$ -- 291
swap$ -- 73
text.length$ -- 0
text.prefix$ -- 0
top$ -- 0
type$ -- 0
warning$ -- 2
while$ -- 65
width$ -- 53
write$ -- 532
(There were 2 error messages)
