\relax 
\providecommand\hyper@newdestlabel[2]{}
\providecommand\HyperFirstAtBeginDocument{\AtBeginDocument}
\HyperFirstAtBeginDocument{\ifx\hyper@anchor\@undefined
\global\let\oldcontentsline\contentsline
\gdef\contentsline#1#2#3#4{\oldcontentsline{#1}{#2}{#3}}
\global\let\oldnewlabel\newlabel
\gdef\newlabel#1#2{\newlabelxx{#1}#2}
\gdef\newlabelxx#1#2#3#4#5#6{\oldnewlabel{#1}{{#2}{#3}}}
\AtEndDocument{\ifx\hyper@anchor\@undefined
\let\contentsline\oldcontentsline
\let\newlabel\oldnewlabel
\fi}
\fi}
\global\let\hyper@last\relax 
\gdef\HyperFirstAtBeginDocument#1{#1}
\providecommand\HyField@AuxAddToFields[1]{}
\providecommand\HyField@AuxAddToCoFields[2]{}
\@writefile{toc}{\contentsline {paragraph}{}{1}{section*.2}}
\citation{li}
\@writefile{toc}{\contentsline {chapter}{Bibliography}{5}{chapter*.4}}
\@writefile{toc}{\contentsline {chapter}{\numberline {1}Introduction}{8}{chapter.1}}
\@writefile{lof}{\addvspace {10\p@ }}
\@writefile{lot}{\addvspace {10\p@ }}
\citation{kagami}
\citation{Sankoh}
\@writefile{toc}{\contentsline {chapter}{\numberline {2}Survey of the Literature}{9}{chapter.2}}
\@writefile{lof}{\addvspace {10\p@ }}
\@writefile{lot}{\addvspace {10\p@ }}
\@writefile{toc}{\contentsline {section}{\numberline {2.1}Object Tracking}{9}{section.2.1}}
\@writefile{toc}{\contentsline {section}{\numberline {2.2}Shape Reconstruction}{9}{section.2.2}}
\@writefile{toc}{\contentsline {section}{\numberline {2.3}Obstacle Identification}{9}{section.2.3}}
\citation{ester}
\citation{ghosh}
\citation{hashimoto}
\citation{kluge}
\citation{derhgawen}
\@writefile{toc}{\contentsline {subsection}{\numberline {2.3.1}Spatial Clustering}{10}{subsection.2.3.1}}
\@writefile{toc}{\contentsline {subsection}{\numberline {2.3.2}Rangefinders}{10}{subsection.2.3.2}}
\@writefile{toc}{\contentsline {subsection}{\numberline {2.3.3}Cameras}{10}{subsection.2.3.3}}
\citation{kagami}
\citation{babaee}
\citation{bendiksen}
\citation{Zhou}
\@writefile{toc}{\contentsline {subsection}{\numberline {2.3.4}Stereo Vision}{11}{subsection.2.3.4}}
\citation{luna}
\citation{henrich}
\citation{gao}
\citation{zhang}
\@writefile{toc}{\contentsline {subsection}{\numberline {2.3.5}Time-of-Flight Cameras}{12}{subsection.2.3.5}}
\@writefile{toc}{\contentsline {subsection}{\numberline {2.3.6}Multiple Cameras}{12}{subsection.2.3.6}}
\@writefile{toc}{\contentsline {subsection}{\numberline {2.3.7}U-V Disparity Mapping}{12}{subsection.2.3.7}}
\citation{gao}
\citation{gao2}
\citation{irki}
\citation{yiruo}
\citation{mhiri}
\@writefile{toc}{\contentsline {section}{\numberline {2.4}The U-V-Disparity Map}{14}{section.2.4}}
\@writefile{lof}{\contentsline {figure}{\numberline {2.1}{\ignorespaces Sample V Disparity Map Generation of Random Distance Image\relax }}{14}{figure.caption.6}}
\@writefile{toc}{\contentsline {subsection}{\numberline {2.4.1}U and V Disparity Map Sampling}{14}{subsection.2.4.1}}
\@writefile{lof}{\contentsline {figure}{\numberline {2.2}{\ignorespaces V Disparity of a Simulated Image: Numerical Representation\relax }}{15}{figure.caption.7}}
\@writefile{lof}{\contentsline {figure}{\numberline {2.3}{\ignorespaces V Disparity of a Simulated Image: Graphical Representation\relax }}{15}{figure.caption.7}}
\citation{gao}
\@writefile{toc}{\contentsline {subsection}{\numberline {2.4.2}Image Processing in The U and V Disparity Maps}{16}{subsection.2.4.2}}
\@writefile{lof}{\contentsline {figure}{\numberline {2.4}{\ignorespaces The Effect of $\sigma $ of Steerable Gaussian Filter Response in the V Disparity\relax }}{16}{figure.caption.8}}
\@writefile{lof}{\contentsline {figure}{\numberline {2.5}{\ignorespaces Thresholding of Gaussian Filtered V Disparity Images\relax }}{16}{figure.caption.8}}
\citation{gao}
\@writefile{lof}{\contentsline {figure}{\numberline {2.6}{\ignorespaces U Disparity Filter Response\relax }}{17}{figure.caption.9}}
\@writefile{lof}{\contentsline {figure}{\numberline {2.7}{\ignorespaces U Disparity Filter Thresholding\relax }}{17}{figure.caption.9}}
\@writefile{toc}{\contentsline {subsubsection}{Filter Response Difference Method}{18}{section*.10}}
\@writefile{toc}{\contentsline {subsubsection}{Disparity Based Segmentation}{18}{section*.13}}
\@writefile{lof}{\contentsline {figure}{\numberline {2.8}{\ignorespaces Filter Response of Steerable Gaussian\relax }}{19}{figure.caption.11}}
\@writefile{lof}{\contentsline {figure}{\numberline {2.9}{\ignorespaces Filter Response Difference Result\relax }}{19}{figure.caption.12}}
\citation{li}
\@writefile{toc}{\contentsline {chapter}{\numberline {3}Time-of-Flight Distance Imaging}{20}{chapter.3}}
\@writefile{lof}{\addvspace {10\p@ }}
\@writefile{lot}{\addvspace {10\p@ }}
\@writefile{toc}{\contentsline {section}{\numberline {3.1}Physics of Time-of-Flight Cameras}{20}{section.3.1}}
\@writefile{toc}{\contentsline {subsection}{\numberline {3.1.1}Pulsed Modulation\cite  {li}}{20}{subsection.3.1.1}}
\citation{ringbeck}
\@writefile{lof}{\contentsline {figure}{\numberline {3.1}{\ignorespaces Time of Flight Windows\relax }}{21}{figure.caption.14}}
\@writefile{toc}{\contentsline {subsection}{\numberline {3.1.2}The Photonic Mixer Device and the ACF}{21}{subsection.3.1.2}}
\@writefile{lof}{\contentsline {figure}{\numberline {3.2}{\ignorespaces Autocorrelation Function Example\relax }}{22}{figure.caption.15}}
\@writefile{lof}{\contentsline {figure}{\numberline {3.3}{\ignorespaces PMD Detector Array Concept\relax }}{23}{figure.caption.16}}
\@writefile{lof}{\contentsline {figure}{\numberline {3.4}{\ignorespaces O3D Amplitude Image\relax }}{23}{figure.caption.17}}
\@writefile{lof}{\contentsline {figure}{\numberline {3.5}{\ignorespaces O3D Distance Image\relax }}{23}{figure.caption.18}}
\@writefile{toc}{\contentsline {section}{\numberline {3.2}Cartesian Spatial Coordinates}{24}{section.3.2}}
\@writefile{lof}{\contentsline {figure}{\numberline {3.6}{\ignorespaces O3D Distance Image and Cartesian Surface\relax }}{24}{figure.caption.19}}
\@writefile{lof}{\contentsline {subfigure}{\numberline{(a)}{\ignorespaces {Distance Image}}}{24}{subfigure.6.1}}
\@writefile{lof}{\contentsline {subfigure}{\numberline{(b)}{\ignorespaces {{$x,y,z$} Surface}}}{24}{subfigure.6.2}}
\@writefile{toc}{\contentsline {subsubsection}{Ground Plane Subtraction}{24}{section*.20}}
\@writefile{lof}{\contentsline {figure}{\numberline {3.7}{\ignorespaces Ground Plane Subtraction\relax }}{24}{figure.caption.21}}
\@writefile{lof}{\contentsline {figure}{\numberline {3.8}{\ignorespaces Ground Plane Subtraction and DBSCAN\relax }}{25}{figure.caption.22}}
\@writefile{toc}{\contentsline {subsubsection}{Spatial Clustering of 3D Data}{25}{section*.23}}
\@writefile{lof}{\contentsline {figure}{\numberline {3.9}{\ignorespaces Ground Plane Subtraction and DBSCAN in 3D\relax }}{26}{figure.caption.24}}
\@writefile{toc}{\contentsline {chapter}{\numberline {4}Results}{27}{chapter.4}}
\@writefile{lof}{\addvspace {10\p@ }}
\@writefile{lot}{\addvspace {10\p@ }}
\@writefile{toc}{\contentsline {section}{\numberline {4.1}Identifying Planes}{27}{section.4.1}}
\@writefile{toc}{\contentsline {subsection}{\numberline {4.1.1}U and V Disparity Map Image Processing}{27}{subsection.4.1.1}}
\@writefile{toc}{\contentsline {subsubsection}{Thresholding in the U- and V-disparity Map}{27}{section*.25}}
\citation{gao2}
\@writefile{lof}{\contentsline {figure}{\numberline {4.1}{\ignorespaces U and V Disparity Thresholding\relax }}{28}{figure.caption.26}}
\@writefile{toc}{\contentsline {subsubsection}{Gaussian Response Filtering}{28}{section*.27}}
\@writefile{toc}{\contentsline {subsection}{\numberline {4.1.2}Plane Identification}{28}{subsection.4.1.2}}
\@writefile{lof}{\contentsline {figure}{\numberline {4.2}{\ignorespaces Identifying Planes\relax }}{29}{figure.caption.28}}
\@writefile{lof}{\contentsline {figure}{\numberline {4.3}{\ignorespaces Blind-spots in the XY-Plane\relax }}{29}{figure.caption.29}}
\@writefile{lof}{\contentsline {figure}{\numberline {4.4}{\ignorespaces Occlusion Zone of Identified Planes\relax }}{30}{figure.caption.30}}
\@writefile{toc}{\contentsline {subsection}{\numberline {4.1.3}The $zy$ and $xz$ Histogram}{31}{subsection.4.1.3}}
\@writefile{lof}{\contentsline {figure}{\numberline {4.5}{\ignorespaces V-Disparity Map and $zy$-Histogram Comparison\relax }}{31}{figure.caption.31}}
\@writefile{toc}{\contentsline {subsection}{\numberline {4.1.4}Detection of Objects in the Occlusion Zone}{31}{subsection.4.1.4}}
\@writefile{lof}{\contentsline {figure}{\numberline {4.6}{\ignorespaces Detection of Objects in the Occlusion Zone\relax }}{32}{figure.caption.32}}
\@writefile{toc}{\contentsline {subsection}{\numberline {4.1.5}Sources of Error}{33}{subsection.4.1.5}}
\@writefile{toc}{\contentsline {subsubsection}{Sensor Limitations}{33}{section*.33}}
\@writefile{lof}{\contentsline {figure}{\numberline {4.7}{\ignorespaces UV-Disparity Method Applied to Noisy, Dense Image\relax }}{33}{figure.caption.34}}
\providecommand*\caption@xref[2]{\@setref\relax\@undefined{#1}}
\newlabel{fig:noise}{{4.7}{33}{UV-Disparity Method Applied to Noisy, Dense Image\relax }{figure.caption.34}{}}
\@writefile{toc}{\contentsline {subsubsection}{Plane Segmentation}{34}{section*.35}}
\@writefile{lof}{\contentsline {figure}{\numberline {4.8}{\ignorespaces Plane Segmentation - Simulation\relax }}{34}{figure.caption.36}}
\newlabel{fig:plane_seg}{{4.8}{34}{Plane Segmentation - Simulation\relax }{figure.caption.36}{}}
\@writefile{lof}{\contentsline {figure}{\numberline {4.9}{\ignorespaces Plane Segmentation - Test Data\relax }}{35}{figure.caption.37}}
\newlabel{fig:plane_seg_test}{{4.9}{35}{Plane Segmentation - Test Data\relax }{figure.caption.37}{}}
\@writefile{lof}{\contentsline {figure}{\numberline {4.10}{\ignorespaces Plane Segmentation - Test Data\relax }}{36}{figure.caption.38}}
\newlabel{fig:plane_seg_test_z}{{4.10}{36}{Plane Segmentation - Test Data\relax }{figure.caption.38}{}}
\@writefile{lof}{\contentsline {figure}{\numberline {4.11}{\ignorespaces Plane Segmentation - Test Data - $xy$-Histogram Method\relax }}{37}{figure.caption.39}}
\newlabel{fig:plane_seg_xyz}{{4.11}{37}{Plane Segmentation - Test Data - $xy$-Histogram Method\relax }{figure.caption.39}{}}
\@writefile{toc}{\contentsline {subsection}{\numberline {4.1.6}Comparison of the UV-Disparity Map and the XYZ-Histogram Method}{38}{subsection.4.1.6}}
\@writefile{lof}{\contentsline {figure}{\numberline {4.12}{\ignorespaces Comparison of U-Disparity Map and XZ-Histogram Map\relax }}{38}{figure.caption.40}}
\newlabel{fig:ud_xz}{{4.12}{38}{Comparison of U-Disparity Map and XZ-Histogram Map\relax }{figure.caption.40}{}}
\@writefile{lof}{\contentsline {figure}{\numberline {4.13}{\ignorespaces Comparison of V-Disparity Map and YZ-Histogram Map\relax }}{39}{figure.caption.41}}
\newlabel{fig:vd_yz}{{4.13}{39}{Comparison of V-Disparity Map and YZ-Histogram Map\relax }{figure.caption.41}{}}
\@writefile{lof}{\contentsline {figure}{\numberline {4.14}{\ignorespaces Paired Lines in the UV-Disparity Map\relax }}{39}{figure.caption.42}}
\newlabel{fig:uv_match}{{4.14}{39}{Paired Lines in the UV-Disparity Map\relax }{figure.caption.42}{}}
\@writefile{lof}{\contentsline {figure}{\numberline {4.15}{\ignorespaces Paired Lines in the XYZ-Histogram Map\relax }}{40}{figure.caption.43}}
\newlabel{fig:xyz_match}{{4.15}{40}{Paired Lines in the XYZ-Histogram Map\relax }{figure.caption.43}{}}
\@writefile{lof}{\contentsline {figure}{\numberline {4.16}{\ignorespaces Identified Occlusions Using the UV-Disparity Map Method\relax }}{40}{figure.caption.44}}
\newlabel{fig:uv_occlusions}{{4.16}{40}{Identified Occlusions Using the UV-Disparity Map Method\relax }{figure.caption.44}{}}
\@writefile{lof}{\contentsline {figure}{\numberline {4.17}{\ignorespaces Identified Occlusions Using the XYZ-Histogram Map Method\relax }}{41}{figure.caption.45}}
\newlabel{fig:xyz_occlusions}{{4.17}{41}{Identified Occlusions Using the XYZ-Histogram Map Method\relax }{figure.caption.45}{}}
\@writefile{lof}{\contentsline {figure}{\numberline {4.18}{\ignorespaces Identified Occlusions Using the UV-Disparity Map Method - Dense Image\relax }}{42}{figure.caption.46}}
\newlabel{fig:uv_occlusions_dense}{{4.18}{42}{Identified Occlusions Using the UV-Disparity Map Method - Dense Image\relax }{figure.caption.46}{}}
\@writefile{lof}{\contentsline {figure}{\numberline {4.19}{\ignorespaces Identified Occlusions Using the XYZ-Histogram Map Method - Dense Image\relax }}{43}{figure.caption.47}}
\newlabel{fig:xyz_occlusions_dense}{{4.19}{43}{Identified Occlusions Using the XYZ-Histogram Map Method - Dense Image\relax }{figure.caption.47}{}}
\@writefile{toc}{\contentsline {chapter}{\numberline {5}Discussion}{44}{chapter.5}}
\@writefile{lof}{\addvspace {10\p@ }}
\@writefile{lot}{\addvspace {10\p@ }}
\@writefile{toc}{\contentsline {section}{\numberline {5.1}Applications of Blind-spot Detection}{44}{section.5.1}}
\@writefile{toc}{\contentsline {subsection}{\numberline {5.1.1}Industrial Applications}{44}{subsection.5.1.1}}
\@writefile{toc}{\contentsline {subsection}{\numberline {5.1.2}Autonomous Navigation}{44}{subsection.5.1.2}}
\citation{spie}
\@writefile{toc}{\contentsline {subsection}{\numberline {5.1.3}Pedestrian Safety}{45}{subsection.5.1.3}}
\@writefile{toc}{\contentsline {section}{\numberline {5.2}Future Work}{45}{section.5.2}}
\@writefile{toc}{\contentsline {subsection}{\numberline {5.2.1}The Curiosity Vector}{45}{subsection.5.2.1}}
\@writefile{toc}{\contentsline {subsection}{\numberline {5.2.2}Occlusion Density and Vector Selection}{46}{subsection.5.2.2}}
\@writefile{toc}{\contentsline {subsection}{\numberline {5.2.3}Networked Applications}{46}{subsection.5.2.3}}
\@writefile{toc}{\contentsline {subsection}{\numberline {5.2.4}Mobile Detectors}{46}{subsection.5.2.4}}
\bibstyle{unsrt}
\bibdata{bib}
\@writefile{toc}{\contentsline {chapter}{\numberline {6}Resources}{47}{chapter.6}}
\@writefile{lof}{\addvspace {10\p@ }}
\@writefile{lot}{\addvspace {10\p@ }}
\@writefile{toc}{\contentsline {section}{\numberline {6.1}The dbbd Python Package}{47}{section.6.1}}
\@writefile{toc}{\contentsline {chapter}{Bibliography}{47}{section.6.1}}
\bibcite{li}{1}
\bibcite{kagami}{2}
\bibcite{Sankoh}{3}
\bibcite{ester}{4}
\bibcite{ghosh}{5}
\bibcite{hashimoto}{6}
\bibcite{kluge}{7}
\bibcite{derhgawen}{8}
\bibcite{babaee}{9}
\bibcite{bendiksen}{10}
\bibcite{Zhou}{11}
\bibcite{luna}{12}
\bibcite{henrich}{13}
\bibcite{gao}{14}
\bibcite{zhang}{15}
\bibcite{gao2}{16}
\bibcite{irki}{17}
\bibcite{yiruo}{18}
\bibcite{mhiri}{19}
\bibcite{ringbeck}{20}
\bibcite{spie}{21}
\bibcite{nakao}{22}
\bibcite{akinlar}{23}
\bibcite{hane}{24}
\bibcite{freeman}{25}
\bibcite{weichselbaum}{26}
\bibcite{reid}{27}
\bibcite{kang}{28}
\bibcite{xiao}{29}
\bibcite{vicente}{30}
\bibcite{arikan}{31}
\bibcite{verhoeven}{32}
\bibcite{redelinghuys}{33}
\bibcite{sun}{34}
\bibcite{wongwaen}{35}
\bibcite{krill}{36}
\bibcite{wrobel}{37}
\bibcite{panchenko}{38}
\bibcite{bhatt}{39}
\bibcite{sobottka}{40}
\bibcite{karamiani}{41}
\bibcite{wenzl}{42}
\bibcite{sequeira}{43}
\bibcite{yil}{44}
\bibcite{kazakos}{45}
\bibcite{bernard}{46}
\bibcite{nagai}{47}
\bibcite{hu}{48}
\bibcite{derhawen}{49}
\bibcite{trivedi}{50}
\bibcite{hansard}{51}
\citation{*}
