\relax 
\citation{sobottka}
\citation{luna}
\@writefile{toc}{\contentsline {chapter}{\numberline {1}Papers}{1}}
\@writefile{lof}{\addvspace {10\p@ }}
\@writefile{lot}{\addvspace {10\p@ }}
\@writefile{toc}{\contentsline {section}{\numberline {1.1}OBSTACLE DETECTION IN RANGE IMAGE SEQUENCES USING RADIAL SLOPE}{1}}
\@writefile{toc}{\contentsline {subsection}{\numberline {1.1.1}Description}{1}}
\@writefile{toc}{\contentsline {paragraph}{An algorithm for object detection using low-resolution distance images is presented by Karin Sobottka et al\cite  {sobottka} that identifies objects based on geometric slope. The geometric relationship of pixel-wise distances and radial slope is presented. Pixels that contain a radial slope that exceeds a threshold are then grouped into objects by way of spatial clustering in a 5x5 grid. An object tracking algorithm is also presented. The tracking algorithm presents the following cases for matching obstacles between frames: identify, merge, split, split \& merge, new appearence, and disappearance. The experimental data was collectued by running the algorithm on simulated data and collected data from a model traffic scene. The results demonstrated that the algorithm could be implemented in real-time.}{1}}
\@writefile{toc}{\contentsline {subsection}{\numberline {1.1.2}Relevance}{1}}
\@writefile{toc}{\contentsline {paragraph}{The geometric of object identification based on radial slope is useful in applications where the ground-plane is not perfectly flat. The multiple-perspective system proposed here seeks to mitigate the occluding effects created by detected obstacles.}{1}}
\@writefile{toc}{\contentsline {subsection}{\numberline {1.1.3}Key Concepts}{1}}
\citation{zhang}
\@writefile{toc}{\contentsline {section}{\numberline {1.2}ROBUST PEOPLE DETECTION USING DEPTH INFORMATION FROM AN OVERHEAD TIME-OF-FLIGHT CAMERA}{2}}
\@writefile{toc}{\contentsline {subsection}{\numberline {1.2.1}Description}{2}}
\@writefile{toc}{\contentsline {paragraph}{A system for identifying and tracking people is presented by Luna, et al \cite  {luna}, which uses a time-of-flight camera mounted in the overhead position. This overhead position is selected to minimize occlusion from obstacles. The authors have selected a time-of-flight camera with concerns for user privacy. RGB camera systems for people tracking can potentially violate the privacy of the subjects. Time-of-Flight data is filtered to reduce noise from motion blur. A mean filter is implemented to smooth the detected surface. The system constructs regions of interest based around the local minima of the distance image. These are interpreted as the heads of people passing through the field of view. The system utilizes a classifier to differentiate people from objects. The classifier functions by looking for the head and shoulder structure in the region of interest. }{2}}
\@writefile{toc}{\contentsline {subsection}{\numberline {1.2.2}Relevance}{2}}
\@writefile{toc}{\contentsline {paragraph}{Mounting the detector overhead to reduce occlusion restricts the field of view of the system. The maximum size of the image is a function of the ceiling height and field of view of the camera. The multiple-perspective system proposed here can utilize the full depth range of the Time-of-Flight camera, while using multiple cameras to mitigate occlusion effects. }{2}}
\@writefile{toc}{\contentsline {subsection}{\numberline {1.2.3}Key Concepts}{2}}
\citation{gao}
\@writefile{toc}{\contentsline {section}{\numberline {1.3}AN OBSTACLE DETECTION ALGORITHM BASED ON U-V DISPARITY MAP ANALYSIS}{3}}
\@writefile{toc}{\contentsline {subsection}{\numberline {1.3.1}Description}{3}}
\@writefile{toc}{\contentsline {paragraph}{Detecting obstacles in real-time in a 3D space is the focus of the work presented by Min Zhang, et al\cite  {zhang}. Stereovision can be used to create a disparity image, representing the distance from the point of detection to regions in the image. This disparity map can be transformed to the U-V space to detect likely obstacles. U and V disparity maps are created by analyzing one row or column of the image and building a histogram of the distances in that row or column. These histograms are accumulated into the U and V disparity maps. These disparity maps can be processed and interpreted to identify the coordinates of obstacles in the orignal disparity image. Key processing algorithms includes line detection, as obstacles in the disparity image will be represented by lines in the U and V disparity maps.}{3}}
\@writefile{toc}{\contentsline {subsection}{\numberline {1.3.2}Relevance}{3}}
\@writefile{toc}{\contentsline {paragraph}{Stereovision is an effective, low-cost technology to acheive an estimation of 3D sensing, and many of the same obstacle detection techniques developed for disparity image analysis can be applied to distance images.}{3}}
\@writefile{toc}{\contentsline {subsection}{\numberline {1.3.3}Key Concepts}{3}}
\@writefile{toc}{\contentsline {section}{\numberline {1.4}OBSTACLE DETECTION WITH 3D CAMERA USING U-V-DISPARITY}{3}}
\@writefile{toc}{\contentsline {subsection}{\numberline {1.4.1}Description}{3}}
\citation{hane}
\citation{bendiksen}
\@writefile{toc}{\contentsline {paragraph}{A 3D camera is used in a U-V disparity map-based methodology proposed by Gao, et al \cite  {gao}. In this approach, a U-V disparity map is constructed from a depth map image generated by a 3d camera. The U-V disparity map can be used to identify features such as the ground plane or vertical planes. This approach is highly sensitive to noise due to the Hough Transform used to process the U-V disparity image. A steerable Gaussian filter is used to reduce noise and enhance processing speed.}{4}}
\@writefile{toc}{\contentsline {subsection}{\numberline {1.4.2}Relevance}{4}}
\@writefile{toc}{\contentsline {paragraph}{The U-V disparity map analysis provides a way to quickly and robustly identify obstacles in a disparity map, or a distance image. The potential for the interpretation of the disparity map for feature extraction is an area of study that has proven useful to this thesis.}{4}}
\@writefile{toc}{\contentsline {subsection}{\numberline {1.4.3}Key Concepts}{4}}
\@writefile{toc}{\contentsline {section}{\numberline {1.5}3D VISUAL PERECEPTION FOR SELF-DRIVING CARS USING A MULTI-CAMERA SYSTEM: CALIBRATION, MAPPING, LOCALIZATION, AND OBSTACLE DETECTION}{4}}
\@writefile{toc}{\contentsline {subsection}{\numberline {1.5.1}Description}{4}}
\@writefile{toc}{\contentsline {paragraph}{An application of a multi-camera system utilizing 3d cameras for autonomous vehicle navigation has been proposed by Hane, et al\cite  {hane}. This sytem utilizes a calibrated multi-camera setup to obtain a 3d virtualization of the environment 360 degrees around the vehicle. Four fisheye cameras are used to obtain this 360 degree field of view. A calibration pipeline is presented to obtain the extrinsic parameters of the system.}{4}}
\@writefile{toc}{\contentsline {subsection}{\numberline {1.5.2}Relevance}{4}}
\@writefile{toc}{\contentsline {paragraph}{The multiple-camera system developed here creates a 360 degree field of view around an object of interest. The application presented here will utilize multiple-cameras to inspect an area of interest from multiple perspectives.}{4}}
\@writefile{toc}{\contentsline {subsection}{\numberline {1.5.3}Key Concepts}{4}}
\citation{bhatt}
\@writefile{toc}{\contentsline {section}{\numberline {1.6}FAST 3D BOUNDARY COMPUTATION FROM OCCLUDING CONTOUR MOTION}{5}}
\@writefile{toc}{\contentsline {subsection}{\numberline {1.6.1}Description}{5}}
\@writefile{toc}{\contentsline {paragraph}{Images from multiple perspectives are used to estimate and outer contour in a system proposed by Bendiksen, et al\cite  {bendiksen}. This system uses a series of 2D images collected along a scan line to estimate the 3D boundaries of an object. The boundary detection algorithm has been designed for fast and efficient boundary computation.}{5}}
\@writefile{toc}{\contentsline {subsection}{\numberline {1.6.2}The 2D scanning system is used to estimate the boundary polygon of an object of interest. This occluding boundary is of interest here, because it can be used to estimate the region of occlusion created by an object. This occlusion will be investigated by moving the sensor along a 3D scan path.}{5}}
\@writefile{toc}{\contentsline {subsection}{\numberline {1.6.3}Key Concepts}{5}}
\@writefile{toc}{\contentsline {section}{\numberline {1.7}OBSTACLE DETECTION FOR VEHICLES USING SENSORS AND ARTIFICIAL INTELLIGENCE}{5}}
\@writefile{toc}{\contentsline {subsection}{\numberline {1.7.1}Description}{5}}
\@writefile{toc}{\contentsline {paragraph}{An overview of the current issues facing intelligent transportation systems has been presented by Bhatt, et al\cite  {bhatt}. Intelligent transportation systems are those that utilize various sensors and artificial intelligence to identify obstacles and safe paths of navigation. Most intelligent transportation systems focus on snag, or obstacle detection in obscure environments.}{5}}
\@writefile{toc}{\contentsline {subsection}{\numberline {1.7.2}Relevance}{5}}
\citation{redelinghuys}
\bibstyle{unsrt}
\bibdata{bib}
\@writefile{toc}{\contentsline {paragraph}{The work presented in this thesis seeks to evaluate the edge case in which one obstacle conceals another obstacle or snag. Intelligent systems capable of categorizing the priority of blind-spots and trading information to eliminate these blind spots could be useful developments for vehicle safety systems, as well as workplace safety systems.}{6}}
\@writefile{toc}{\contentsline {subsection}{\numberline {1.7.3}Key Concepts}{6}}
\@writefile{toc}{\contentsline {section}{\numberline {1.8}CAST SHADOWS ESTIMATION USING THE WALSH TRANSFORM}{6}}
\@writefile{toc}{\contentsline {subsection}{\numberline {1.8.1}Description}{6}}
\@writefile{toc}{\contentsline {paragraph}{A novel method to estimate shadows on a surface has been proposed by Redelinghuys, et al\cite  {redelinghuys}. This method utilizes the Walsh transform to estimate shadows on a surface for a given illumination direction. This methodology seeks to minimize processing time by eliminating the need to re-process the cast shadow estimation at each frame.}{6}}
\@writefile{toc}{\contentsline {subsection}{\numberline {1.8.2}Relevance}{6}}
\@writefile{toc}{\contentsline {paragraph}{The work in this thesis seeks to mitigate the information loss associated with shadows cast by objects in a 3D camera's field of vision. Estimation of these shadows is a key step in identifying critical occluding regions that must be investigated. A method for efficiently estimating cast shadows for a given illumination direction is a useful area of research. In the work for this thesis, the 3D camera will not change positions, so the illumination direction will be constant, so this work may be a good application for the proposed cast-shadow estimation algorithm.}{6}}
\@writefile{toc}{\contentsline {subsection}{\numberline {1.8.3}Key Concepts}{6}}
\bibcite{sobottka}{1}
\bibcite{luna}{2}
\bibcite{zhang}{3}
\bibcite{gao}{4}
\bibcite{hane}{5}
\bibcite{bendiksen}{6}
\bibcite{bhatt}{7}
\bibcite{redelinghuys}{8}
